[
  {
    "id": "com.projectbox.phrasebook_z_rid_ad",
    "title": "Remove ads",
    "description": "Never again see any ads",
    "price": "$0.99",
    "icon": "ic_action_settings",
    "unlock": ["ads"]
  },
  {
    "id": "com.projectbox.phrasebook_bundle_1",
    "title": "Unlock 5 Category",
    "description": "Unlock all category and get a discount",
    "price": "$0.99",
    "icon": "ic_action_settings",
    "unlock": ["Diner", "Transportation", "Emergency"]
  }
]